<?xml version="1.0" encoding="utf-8"?>
<!-- Generator: Adobe Illustrator 19.2.1, SVG Export Plug-In . SVG Version: 6.00 Build 0)  -->
<svg version="1.1" id="Layer_1" xmlns="http://www.w3.org/2000/svg" xmlns:xlink="http://www.w3.org/1999/xlink" x="0px" y="0px"
	 viewBox="0 0 512 512" style="enable-background:new 0 0 512 512;" xml:space="preserve">
<style type="text/css">
	.st0{fill:#3C3030;}
	.st1{fill:#F3EBDD;}
	.st2{fill:#AC928C;}
	.st3{fill:#E4B05C;}
</style>
<path class="st0" d="M322.8,133.6H189.2c-9.2,0-16.7-7.5-16.7-16.7V50.1C172.5,22.5,195,0,222.6,0h66.8c27.6,0,50.1,22.5,50.1,50.1
	v66.8C339.5,126.1,332,133.6,322.8,133.6z"/>
<path class="st1" d="M356.2,512H155.8c-27.6,0-50.1-22.5-50.1-50.1v-33.4c0-9.2,7.5-16.7,16.7-16.7h267.1c9.2,0,16.7,7.5,16.7,16.7
	v33.4C406.3,489.5,383.8,512,356.2,512z"/>
<path class="st0" d="M289.4,0H256v133.6h66.8c9.2,0,16.7-7.5,16.7-16.7V50.1C339.5,22.5,317,0,289.4,0z"/>
<path class="st1" d="M389.6,200.3H122.4c-9.2,0-16.7-7.5-16.7-16.7V167c0-36.8,30-66.8,66.8-66.8h167c36.8,0,66.8,30,66.8,66.8v16.7
	C406.3,192.9,398.8,200.3,389.6,200.3z"/>
<g>
	<path class="st1" d="M339.5,100.2H256v100.2h133.6c9.2,0,16.7-7.5,16.7-16.7V167C406.3,130.1,376.3,100.2,339.5,100.2z"/>
	<path class="st1" d="M389.6,411.8H256V512h100.2c27.6,0,50.1-22.5,50.1-50.1v-33.4C406.3,419.3,398.8,411.8,389.6,411.8z"/>
</g>
<path class="st2" d="M406.3,445.2H105.7V167h300.5L406.3,445.2L406.3,445.2z"/>
<rect x="256" y="167" class="st2" width="150.3" height="278.3"/>
<path class="st3" d="M256,378.4c-15.6,0-30.2-6.1-41.2-17.1c-21.1-21.2-22.9-54.6-4.1-77.9l32.3-40c3.2-3.9,7.9-6.2,13-6.2
	s9.8,2.3,13,6.2l32.3,40c18.8,23.2,17,56.7-4.1,77.9C286.2,372.4,271.6,378.4,256,378.4z"/>
<path class="st3" d="M297.2,361.4c21.1-21.2,22.9-54.6,4.1-77.9l-32.3-40c-3.2-3.9-7.9-6.2-13-6.2v141.1
	C271.6,378.4,286.2,372.4,297.2,361.4z"/>
</svg>
