<?xml version="1.0" encoding="utf-8"?>
<!-- Generator: Adobe Illustrator 19.2.1, SVG Export Plug-In . SVG Version: 6.00 Build 0)  -->
<svg version="1.1" id="Layer_1" xmlns="http://www.w3.org/2000/svg" xmlns:xlink="http://www.w3.org/1999/xlink" x="0px" y="0px"
	 viewBox="0 0 401.8 448.1" style="enable-background:new 0 0 401.8 448.1;" xml:space="preserve">
<style type="text/css">
	.st0{fill-rule:evenodd;clip-rule:evenodd;fill:#FFD492;}
	.st1{fill-rule:evenodd;clip-rule:evenodd;fill:#E4B05B;}
	.st2{fill-rule:evenodd;clip-rule:evenodd;fill:#786151;}
	.st3{fill-rule:evenodd;clip-rule:evenodd;fill:#AC918C;}
	.st4{fill-rule:evenodd;clip-rule:evenodd;fill:#3C3030;}
	.st5{fill-rule:evenodd;clip-rule:evenodd;fill:#EDE0D2;}
	.st6{fill-rule:evenodd;clip-rule:evenodd;fill:#EDE8D2;}
	.st7{fill-rule:evenodd;clip-rule:evenodd;fill:#EF3843;}
</style>
<circle class="st0" cx="-13.2" cy="313.7" r="59.5"/>
<circle class="st1" cx="-6.2" cy="268.9" r="44.8"/>
<path class="st2" d="M257,448.1H36.6C16.4,448.1,0,431.8,0,411.6v-375C0,16.4,16.4,0,36.6,0H257c20.2,0,36.6,16.4,36.6,36.6v375
	C293.6,431.8,277.2,448.1,257,448.1z"/>
<path class="st3" d="M384.8,309.1h-91.2V61.8h91.2c9.4,0,17,7.6,17,17V292C401.8,301.4,394.2,309.1,384.8,309.1z"/>
<rect x="324.5" y="61.8" class="st4" width="30.9" height="247.3"/>
<path class="st1" d="M386.3,100.4c0-4.3-3.5-7.7-7.7-7.7c-4.3,0-7.7,3.5-7.7,7.7c0,4.3,3.5,7.7,7.7,7.7
	C382.9,108.2,386.3,104.7,386.3,100.4z"/>
<path class="st1" d="M386.3,139.1c0-4.3-3.5-7.7-7.7-7.7c-4.3,0-7.7,3.5-7.7,7.7c0,4.3,3.5,7.7,7.7,7.7
	C382.9,146.8,386.3,143.3,386.3,139.1z"/>
<rect x="38.6" y="69.5" class="st5" width="216.3" height="85"/>
<path class="st3" d="M77.3,46.4H30.9c-4.3,0-7.7-3.5-7.7-7.7c0-4.3,3.5-7.7,7.7-7.7l46.4,0c4.3,0,7.7,3.5,7.7,7.7
	C85,42.9,81.5,46.4,77.3,46.4z"/>
<rect x="46.4" y="185.4" class="st6" width="46.4" height="38.6"/>
<rect x="123.6" y="185.4" class="st6" width="46.4" height="38.6"/>
<rect x="200.9" y="185.4" class="st7" width="46.4" height="38.6"/>
<rect x="46.4" y="247.2" class="st6" width="46.4" height="38.6"/>
<rect x="123.6" y="247.2" class="st6" width="46.4" height="38.6"/>
<rect x="200.9" y="247.2" class="st0" width="46.4" height="38.6"/>
<rect x="46.4" y="309.1" class="st6" width="46.4" height="38.6"/>
<rect x="123.6" y="309.1" class="st6" width="46.4" height="38.6"/>
<rect x="46.4" y="370.9" class="st6" width="46.4" height="38.6"/>
<rect x="123.6" y="370.9" class="st6" width="46.4" height="38.6"/>
<rect x="200.9" y="309.1" class="st1" width="46.4" height="108.2"/>
<path class="st3" d="M137.5,118.2l-7.7,7.7c-3,3-3,7.9,0,10.9c1.5,1.5,3.5,2.3,5.5,2.3c2,0,4-0.8,5.5-2.3l7.7-7.7c3-3,3-7.9,0-10.9
	C145.4,115.1,140.6,115.1,137.5,118.2z"/>
<path class="st3" d="M115.2,115.5v7.3l-4.8,1.2h-0.1v8.7H98.1V124H80.8c-1.8,0-3.1-0.7-4.1-2c-1-1.3-1.1-2.8-0.5-4.4l10.4-27.8h12.4
	l-8.7,24c-0.2,0.5-0.1,0.8,0.1,1.1c0.2,0.3,0.5,0.4,1,0.4h6.6v-10.6l2.2-6.6h10.1v17.2H115.2z"/>
<path class="st3" d="M163.7,100.4l-0.4-9.9c5-0.9,10.3-1.4,16-1.4c5.2,0,9.2,0.8,11.8,2.3c2.7,1.6,4,4.3,4,8.4
	c0,2.4-0.4,4.4-1.2,6.1c-0.8,1.7-2.6,3.9-5.3,6.6l-10.1,9.6c1.7-0.5,3.6-0.7,5.7-0.6h11.9v11.3h-33.2V126c0-2.2,0.6-4,1.9-5.4
	l8.9-8.8c5.1-5.1,7.6-8.5,7.6-10.3c0-0.6-0.3-0.9-0.8-1.1c-0.5-0.1-1.5-0.2-3-0.2C172.4,100.2,167.7,100.3,163.7,100.4z"/>
<path class="st3" d="M218.5,89c6.9,0,11.7,1.6,14.4,4.8c2.7,3.2,4,9,4,17.5c0,8.5-1.3,14.3-4,17.5c-2.7,3.2-7.5,4.8-14.4,4.8
	c-6.8,0-11.6-1.6-14.3-4.8c-2.7-3.2-4-9-4-17.5c0-8.5,1.3-14.3,4-17.5C206.9,90.6,211.7,89,218.5,89L218.5,89z M218.5,99
	c-1.4,0-2.4,0.3-3,0.8c-0.6,0.5-1.1,1.6-1.4,3.4c-0.3,1.7-0.5,4.4-0.5,8.2c0,3.7,0.2,6.5,0.5,8.2c0.3,1.7,0.8,2.8,1.4,3.4
	c0.6,0.5,1.6,0.8,3,0.8c1.5,0,2.6-0.3,3.2-0.8c0.6-0.5,1.1-1.6,1.4-3.4c0.3-1.7,0.5-4.4,0.5-8.2c0-3.7-0.2-6.5-0.5-8.2
	c-0.3-1.7-0.8-2.8-1.4-3.4C221,99.3,220,99,218.5,99z"/>
</svg>
